…
df <- expand_grid(first_col = LETTERS[1:3],
                  second_col = letters[1:10]) %>%
  mutate(third_col = runif(nrow(.)))

df
#> # A tibble: 30 × 3
#>    first_col second_col third_col
#>    <chr>     <chr>          <dbl>
#>  1 A         a              0.482
#>  2 A         b              0.773
#>  3 A         c              0.471
#>  4 A         d              0.421
#>  5 A         e              0.529
#>  6 A         f              0.675
#>  7 A         g              0.895
#>  8 A         h              0.941
#>  9 A         i              0.768
#> 10 A         j              0.937
#> # ℹ 20 more rows
```
…
Note: Initialization may involve transformation and renaming. When you
use `$data` it will reflect those changes. All the data will be there,
but not necessarily in the same format as the original.

That note doesn’t apply to this example, but it’s an important point to
keep in mind.

``` r

output <- cdo$data

output
#> # A tibble: 30 × 3
#>    first_col second_col third_col
#>    <chr>     <chr>          <dbl>
#>  1 A         a              0.482
#>  2 A         b              0.773
#>  3 A         c              0.471
#>  4 A         d              0.421
#>  5 A         e              0.529
#>  6 A         f              0.675
#>  7 A         g              0.895
#>  8 A         h              0.941
#>  9 A         i              0.768
#> 10 A         j              0.937
#> # ℹ 20 more rows
```
…
### Correlating with `coracle`

Preparing the `coracle_data` objects for `coracle` is the hardest part.
Once the data is ready, it’s a simple matter to call the function.

Let’s create a second `coracle_data` object, this one using “X”, “Y”,
and “Z”:

``` r
df2 <- expand_grid(df2_first = LETTERS[24:26],
                  df2_second = letters[1:10]) %>%
  mutate(df2_third = runif(nrow(.)))

df2
#> # A tibble: 30 × 3
#>    df2_first df2_second df2_third
#>    <chr>     <chr>          <dbl>
#>  1 X         a            0.336  
#>  2 X         b            0.232  
#>  3 X         c            0.972  
#>  4 X         d            0.431  
#>  5 X         e            0.795  
#>  6 X         f            0.799  
#>  7 X         g            0.111  
#>  8 X         h            0.120  
#>  9 X         i            0.700  
#> 10 X         j            0.00691
#> # ℹ 20 more rows
…
